MIPS.vcd
$date
	Sun Sep  8 17:37:17 2019
$end
$version
	Icarus Verilog
$end
$timescale
	1s
$end
$scope module TopLevelSimulation $end
$var wire 1 ! Zero $end
$var wire 32 " WB_readData [31:0] $end
$var wire 32 # WB_WriteData [31:0] $end
$var wire 1 $ WB_RegWrite_Enable $end
$var wire 1 % WB_MemtoReg $end
$var wire 5 & WB_Index_WriteReg [4:0] $end
$var wire 32 ' WB_ALUresult [31:0] $end
$var wire 32 ( Saida_Somador [31:0] $end
$var wire 32 ) Saida_Shift_Left2 [31:0] $end
$var wire 32 * Saida_Mux_ForwardB [31:0] $end
$var wire 32 + Saida_Mux_ForwardA [31:0] $end
$var wire 32 , Saida_Memory_ReadData [31:0] $end
$var wire 32 - Saida_Ext_Sinal [31:0] $end
$var wire 1 . RegWrite $end
$var wire 1 / RegDst $end
$var wire 32 0 ReadData2 [31:0] $end
$var wire 32 1 ReadData1 [31:0] $end
$var wire 32 2 PC_Out_Mais_4 [31:0] $end
$var wire 32 3 PC_Out [31:0] $end
$var wire 32 4 PC_IN [31:0] $end
$var wire 1 5 PC_Freeze $end
$var wire 1 6 MemtoReg $end
$var wire 1 7 MemWrite $end
$var wire 1 8 MemRead $end
$var wire 32 9 MEM_readData2 [31:0] $end
$var wire 1 : MEM_Zero $end
$var wire 1 ; MEM_RegWrite $end
$var wire 1 < MEM_MemtoReg $end
$var wire 1 = MEM_MemWrite $end
$var wire 1 > MEM_MemRead $end
$var wire 5 ? MEM_Index_WriteReg [4:0] $end
$var wire 2 @ MEM_Branch [1:0] $end
$var wire 32 A MEM_ALUresult [31:0] $end
$var wire 32 B Instruction [31:0] $end
$var wire 5 C Index_WriteReg [4:0] $end
$var wire 1 D IF_ID_Stall_Write $end
$var wire 32 E ID_PC [31:0] $end
$var wire 32 F ID_Instruction [31:0] $end
$var wire 2 G ForwardB [1:0] $end
$var wire 2 H ForwardA [1:0] $end
$var wire 32 I EX_Saida_Ext_Sinal [31:0] $end
$var wire 1 J EX_RegWrite $end
$var wire 1 K EX_RegDst $end
$var wire 32 L EX_ReadData2 [31:0] $end
$var wire 32 M EX_ReadData1 [31:0] $end
$var wire 32 N EX_PC [31:0] $end
$var wire 1 O EX_MemtoReg $end
$var wire 1 P EX_MemWrite $end
$var wire 1 Q EX_MemRead $end
$var wire 32 R EX_Instruction [31:0] $end
$var wire 2 S EX_Branch [1:0] $end
$var wire 1 T EX_ALUSrc $end
$var wire 2 U EX_ALUOp [1:0] $end
$var wire 1 V Door_out $end
$var wire 1 W Controller_Write $end
$var wire 4 X Controle_ALU [3:0] $end
$var wire 1 Y Clock $end
$var wire 2 Z Branch [1:0] $end
$var wire 32 [ ALUresult [31:0] $end
$var wire 1 \ ALUSrc $end
$var wire 2 ] ALUOp [1:0] $end
$var reg 1 ^ reset $end
$scope module ADD_PC $end
$var wire 32 _ saida [31:0] $end
$var wire 32 ` a [31:0] $end
$upscope $end
$scope module ALU1 $end
$var wire 1 ! zero $end
$var wire 4 a controle [3:0] $end
$var wire 32 b ALUIN_B [31:0] $end
$var wire 32 c ALUIN_A [31:0] $end
$var reg 32 d saida [31:0] $end
$upscope $end
$scope module ALUcontrol $end
$var wire 6 e Func_Code [5:0] $end
$var wire 2 f OpCode_ALU [1:0] $end
$var reg 4 g Controle_ALU [3:0] $end
$upscope $end
$scope module AddALU $end
$var wire 32 h saida [31:0] $end
$var wire 32 i b [31:0] $end
$var wire 32 j a [31:0] $end
$upscope $end
$scope module CLK $end
$var reg 1 Y CLOCK $end
$upscope $end
$scope module Control $end
$var wire 6 k Opcode [5:0] $end
$var wire 1 Y clk $end
$var wire 1 W Controller_Write $end
$var reg 2 l ALUOp [1:0] $end
$var reg 1 \ ALUSrc $end
$var reg 2 m Branch [1:0] $end
$var reg 1 8 MemRead $end
$var reg 1 7 MemWrite $end
$var reg 1 6 MemtoReg $end
$var reg 1 / RegDst $end
$var reg 1 . RegWrite $end
$upscope $end
$scope module DataMemory $end
$var wire 1 Y Clk $end
$var wire 32 n WriteData [31:0] $end
$var wire 1 = MemWrite $end
$var wire 1 > MemRead $end
$var wire 32 o Address [31:0] $end
$var reg 32 p ReadData [31:0] $end
$upscope $end
$scope module DoorAND $end
$var wire 1 : flag $end
$var wire 2 q branch [1:0] $end
$var reg 1 V out $end
$upscope $end
$scope module Forward_Module $end
$var wire 1 Y clk $end
$var wire 1 ^ reset $end
$var wire 5 r WB_WriteRegister_In [4:0] $end
$var wire 1 $ WB_RegWrite_In $end
$var wire 5 s MEM_WriteRegister_In [4:0] $end
$var wire 1 ; MEM_RegWrite_In $end
$var wire 32 t EX_Instruction_In [31:0] $end
$var reg 2 u ForwardA_Out [1:0] $end
$var reg 2 v ForwardB_Out [1:0] $end
$upscope $end
$scope module Hazard_Module $end
$var wire 1 ^ reset $end
$var wire 32 w ID_Instruction_In [31:0] $end
$var wire 1 Q EX_MemRead_In $end
$var wire 32 x EX_Instruction_In [31:0] $end
$var reg 1 W Controller_Write_Out $end
$var reg 1 D IF_ID_Stall_Write_Out $end
$var reg 1 5 PC_Freeze_Out $end
$upscope $end
$scope module IMemory $end
$var wire 32 y endereco [31:0] $end
$var reg 32 z instrucao [31:0] $end
$upscope $end
$scope module MUX_MemtoReg $end
$var wire 32 { saida [31:0] $end
$var wire 32 | entrada2 [31:0] $end
$var wire 32 } entrada1 [31:0] $end
$var wire 1 % controle $end
$upscope $end
$scope module MuxALUSrcFWDB $end
$var wire 2 ~ Saida_ForwardB_In [1:0] $end
$var wire 32 !" WB_WriteData_In [31:0] $end
$var wire 32 "" MEM_ALUresult_In [31:0] $end
$var wire 32 #" EX_Saida_Ext_Sinal_In [31:0] $end
$var wire 32 $" EX_ReadData2_In [31:0] $end
$var wire 1 T EX_ALUSrc_In $end
$var reg 32 %" Saida_Mux_FWRB_ALUSrc_Out [31:0] $end
$upscope $end
$scope module MuxBranch $end
$var wire 1 V controle $end
$var wire 32 &" entrada1 [31:0] $end
$var wire 32 '" entrada2 [31:0] $end
$var wire 32 (" saida [31:0] $end
$upscope $end
$scope module MuxFwdA $end
$var wire 2 )" Saida_ForwardA_In [1:0] $end
$var wire 32 *" WB_WriteData_In [31:0] $end
$var wire 32 +" MEM_ALUresult_In [31:0] $end
$var wire 32 ," EX_ReadData1_In [31:0] $end
$var reg 32 -" Saida_Mux_FWRBA_Out [31:0] $end
$upscope $end
$scope module MuxRegDst $end
$var wire 5 ." entrada1 [4:0] $end
$var wire 5 /" entrada2 [4:0] $end
$var wire 5 0" saida [4:0] $end
$var wire 1 K controle $end
$upscope $end
$scope module PC $end
$var wire 1 5 PC_Freeze $end
$var wire 1 Y clk $end
$var wire 32 1" entrada [31:0] $end
$var wire 1 ^ reset $end
$var reg 32 2" saida [31:0] $end
$upscope $end
$scope module REG_EXE_MEM $end
$var wire 32 3" ALUresult_In [31:0] $end
$var wire 5 4" WriteRegister_In [4:0] $end
$var wire 1 Y clk $end
$var wire 1 ^ reset $end
$var wire 1 ! zero $end
$var wire 1 J EX_RegWrite_In $end
$var wire 32 5" EX_ReadData2_In [31:0] $end
$var wire 1 O EX_MemtoReg_In $end
$var wire 1 P EX_MemWrite_In $end
$var wire 1 Q EX_MemRead_In $end
$var wire 2 6" EX_Branch_In [1:0] $end
$var reg 32 7" MEM_ALUresult_Out [31:0] $end
$var reg 2 8" MEM_Branch_Out [1:0] $end
$var reg 1 > MEM_MemRead_Out $end
$var reg 1 = MEM_MemWrite_Out $end
$var reg 1 < MEM_MemtoReg_Out $end
$var reg 32 9" MEM_ReadData2_Out [31:0] $end
$var reg 1 ; MEM_RegWrite_Out $end
$var reg 5 :" MEM_WriteRegister_Out [4:0] $end
$var reg 1 : MEM_Zero_Out $end
$upscope $end
$scope module REG_ID_EXE $end
$var wire 2 ;" ALUOp_In [1:0] $end
$var wire 1 \ ALUSrc_In $end
$var wire 2 <" Branch_In [1:0] $end
$var wire 1 8 MemRead_In $end
$var wire 1 7 MemWrite_In $end
$var wire 1 6 MemtoReg_In $end
$var wire 1 / RegDst_In $end
$var wire 1 . RegWrite_In $end
$var wire 1 Y clk $end
$var wire 1 ^ reset $end
$var wire 32 =" Saida_Ext_Sinal_In [31:0] $end
$var wire 32 >" ReadData2_In [31:0] $end
$var wire 32 ?" ReadData1_In [31:0] $end
$var wire 32 @" ID_PC_In [31:0] $end
$var wire 32 A" ID_Instruction_In [31:0] $end
$var reg 2 B" EX_ALUOp_Out [1:0] $end
$var reg 1 T EX_ALUSrc_Out $end
$var reg 2 C" EX_Branch_Out [1:0] $end
$var reg 32 D" EX_Instruction_Out [31:0] $end
$var reg 1 Q EX_MemRead_Out $end
$var reg 1 P EX_MemWrite_Out $end
$var reg 1 O EX_MemtoReg_Out $end
$var reg 32 E" EX_PC_Out [31:0] $end
$var reg 32 F" EX_ReadData1_Out [31:0] $end
$var reg 32 G" EX_ReadData2_Out [31:0] $end
$var reg 1 K EX_RegDst_Out $end
$var reg 1 J EX_RegWrite_Out $end
$var reg 32 H" EX_Saida_Ext_Sinal_Out [31:0] $end
$upscope $end
$scope module REG_IF_ID $end
$var wire 1 D IF_IDWrite_In $end
$var wire 32 I" Instruction_In [31:0] $end
$var wire 32 J" SaidaSOMA4_In [31:0] $end
$var wire 1 Y clk $end
$var wire 1 ^ reset $end
$var reg 32 K" ID_Instruction_Out [31:0] $end
$var reg 32 L" ID_PC_Out [31:0] $end
$upscope $end
$scope module REG_MEM_WB $end
$var wire 32 M" MEM_ALUresult_In [31:0] $end
$var wire 5 N" MEM_Index_WriteReg_In [4:0] $end
$var wire 1 < MEM_MemtoReg_In $end
$var wire 1 ; MEM_RegWrite_In $end
$var wire 32 O" ReadData_In [31:0] $end
$var wire 1 Y clk $end
$var wire 1 ^ reset $end
$var reg 32 P" WB_ALUresult_Out [31:0] $end
$var reg 5 Q" WB_Index_WriteReg_Out [4:0] $end
$var reg 1 % WB_MemtoReg_Out $end
$var reg 1 $ WB_RegWrite_Out $end
$var reg 32 R" WB_readData_Out [31:0] $end
$upscope $end
$scope module Regs $end
$var wire 32 S" ReadData1 [31:0] $end
$var wire 32 T" ReadData2 [31:0] $end
$var wire 5 U" ReadReg1 [4:0] $end
$var wire 5 V" ReadReg2 [4:0] $end
$var wire 1 $ RegWrite $end
$var wire 32 W" WriteData [31:0] $end
$var wire 5 X" WriteReg [4:0] $end
$var wire 1 Y clk $end
$upscope $end
$scope module Shift2 $end
$var wire 32 Y" entrada [31:0] $end
$var reg 32 Z" saida [31:0] $end
$upscope $end
$scope module SignExt $end
$var wire 16 [" entrada [15:0] $end
$var wire 32 \" saida [31:0] $end
$upscope $end
$upscope $end
$enddefinitions $end
#0
$dumpvars
bx \"
bx ["
bx00 Z"
bx Y"
bx X"
bx W"
bx V"
bx U"
bx T"
bx S"
bx R"
bx Q"
bx P"
bx O"
bx N"
bx M"
bx L"
bx K"
bx J"
bx I"
bx H"
bx G"
bx F"
bx E"
bx D"
bx C"
bx B"
bx A"
bx @"
bx ?"
bx >"
bx ="
bx <"
bx ;"
bx :"
bx 9"
bx 8"
bx 7"
bx 6"
bx 5"
bx 4"
bx 3"
bx 2"
bx 1"
bx 0"
bx /"
bx ."
bx -"
bx ,"
bx +"
bx *"
bx )"
bx ("
bx '"
bx &"
bx %"
bx $"
bx #"
bx ""
bx !"
bx ~
bx }
bx |
bx {
bx z
bx y
bx x
bx w
bx v
bx u
bx t
bx s
bx r
bx q
bx p
bx o
bx n
bx m
bx l
bx k
bx j
bx00 i
bx h
bx g
bx f
bx e
bx d
bx c
bx b
bx a
bx `
bx _
x^
bx ]
x\
bx [
bx Z
xY
bx X
xW
xV
bx U
xT
bx S
bx R
xQ
xP
xO
bx N
bx M
bx L
xK
xJ
bx I
bx H
bx G
bx F
bx E
xD
bx C
bx B
bx A
bx @
bx ?
x>
x=
x<
x;
x:
bx 9
x8
x7
x6
x5
bx 4
bx 3
bx 2
bx 1
bx 0
x/
x.
bx -
bx ,
bx +
bx *
bx00 )
bx (
bx '
bx &
x%
x$
bx #
bx "
x!
$end
#1
1!
b0 [
b0 d
b0 3"
b1000010010101000000100000 B
b1000010010101000000100000 z
b1000010010101000000100000 I"
b0 (
b0 h
b0 '"
b0 )
b0 i
b0 Z"
b0 -
b0 ="
b0 Y"
b0 \"
1.
0\
07
b10 ]
b10 l
b10 ;"
06
08
b0 Z
b0 m
b0 <"
1/
b100 4
b100 ("
b100 1"
b0 ["
b0 0
b0 >"
b0 T"
b0 V"
b0 1
b0 ?"
b0 S"
b0 U"
b0 k
b0 C
b0 0"
b0 4"
b0 X
b0 a
b0 g
b0 e
b0 /"
b0 ."
b0 *
b0 b
b0 %"
b0 +
b0 c
b0 -"
0V
b0 #
b0 {
b0 !"
b0 *"
b0 W"
b100 2
b100 _
b100 &"
b100 J"
b0 3
b0 `
b0 y
b0 2"
b0 F
b0 w
b0 A"
b0 K"
b0 E
b0 j
b0 @"
b0 L"
b0 S
b0 6"
b0 C"
0J
0O
0Q
0P
0K
b0 U
b0 f
b0 B"
0T
b0 R
b0 t
b0 x
b0 D"
b0 I
b0 #"
b0 H"
b0 L
b0 $"
b0 5"
b0 G"
b0 M
b0 ,"
b0 F"
b0 N
b0 E"
0:
0;
0<
0>
0=
b0 ?
b0 s
b0 :"
b0 N"
b0 9
b0 n
b0 9"
b0 A
b0 o
b0 ""
b0 +"
b0 7"
b0 M"
b0 @
b0 q
b0 8"
0%
0$
b0 &
b0 r
b0 Q"
b0 X"
b0 '
b0 }
b0 P"
b0 "
b0 |
b0 R"
05
0D
0W
b0 G
b0 v
b0 ~
b0 H
b0 u
b0 )"
1^
1Y
#2
b10100000010000000 )
b10100000010000000 i
b10100000010000000 Z"
b101000000100000 -
b101000000100000 ="
b101000000100000 Y"
b101000000100000 \"
b101000000100000 ["
b10100 0
b10100 >"
b10100 T"
b1001 V"
b1010 1
b1010 ?"
b1010 S"
b1000 U"
b10000100011001000000100000 B
b10000100011001000000100000 z
b10000100011001000000100000 I"
bx "
bx |
bx R"
1:
1K
b10 U
b10 f
b10 B"
1J
b1000010010101000000100000 F
b1000010010101000000100000 w
b1000010010101000000100000 A"
b1000010010101000000100000 K"
b10100000010001000 (
b10100000010001000 h
b10100000010001000 '"
b1000 E
b1000 j
b1000 @"
b1000 L"
b1000 4
b1000 ("
b1000 1"
b1000 2
b1000 _
b1000 &"
b1000 J"
b100 3
b100 `
b100 y
b100 2"
0^
0Y
#3
0!
b11110 [
b11110 d
b11110 3"
b11111111111111100100000010001000 (
b11111111111111100100000010001000 h
b11111111111111100100000010001000 '"
b11111111111111100100000010000000 )
b11111111111111100100000010000000 i
b11111111111111100100000010000000 Z"
b11111111111111111001000000100000 -
b11111111111111111001000000100000 ="
b11111111111111111001000000100000 Y"
b11111111111111111001000000100000 \"
b1010 C
b1010 0"
b1010 4"
b1001000000100000 ["
b10 0
b10 >"
b10 T"
b10001 V"
b1 1
b1 ?"
b1 S"
b10000 U"
b100000 e
b1010 /"
b1001 ."
b10100 *
b10100 b
b10100 %"
b1010 +
b1010 c
b1010 -"
b10100100111010100000100010 B
b10100100111010100000100010 z
b10100100111010100000100010 I"
b10000100011001000000100000 F
b10000100011001000000100000 w
b10000100011001000000100000 A"
b10000100011001000000100000 K"
b1000010010101000000100000 R
b1000010010101000000100000 t
b1000010010101000000100000 x
b1000010010101000000100000 D"
b101000000100000 I
b101000000100000 #"
b101000000100000 H"
b10100 L
b10100 $"
b10100 5"
b10100 G"
b1010 M
b1010 ,"
b1010 F"
b1000 N
b1000 E"
1;
b1100 4
b1100 ("
b1100 1"
b1100 2
b1100 _
b1100 &"
b1100 J"
b1000 3
b1000 `
b1000 y
b1000 2"
1Y
#4
0Y
#5
b11 [
b11 d
b11 3"
b11111111111111101010000010001000 )
b11111111111111101010000010001000 i
b11111111111111101010000010001000 Z"
b10010 C
b10010 0"
b10010 4"
b11111111111111111010100000100010 -
b11111111111111111010100000100010 ="
b11111111111111111010100000100010 Y"
b11111111111111111010100000100010 \"
b10010 /"
b10001 ."
b10 *
b10 b
b10 %"
b1 +
b1 c
b1 -"
b1010100000100010 ["
b100 0
b100 >"
b100 T"
b10011 V"
b101 1
b101 ?"
b101 S"
b10100 U"
b1010101010111000000100101 B
b1010101010111000000100101 z
b1010101010111000000100101 I"
1$
b10100 9
b10100 n
b10100 9"
b11110 A
b11110 o
b11110 ""
b11110 +"
b11110 7"
b11110 M"
0:
b1010 ?
b1010 s
b1010 :"
b1010 N"
b10000100011001000000100000 R
b10000100011001000000100000 t
b10000100011001000000100000 x
b10000100011001000000100000 D"
b11111111111111111001000000100000 I
b11111111111111111001000000100000 #"
b11111111111111111001000000100000 H"
b10 L
b10 $"
b10 5"
b10 G"
b1 M
b1 ,"
b1 F"
b10100100111010100000100010 F
b10100100111010100000100010 w
b10100100111010100000100010 A"
b10100100111010100000100010 K"
b11111111111111101010000010011000 (
b11111111111111101010000010011000 h
b11111111111111101010000010011000 '"
b10000 E
b10000 j
b10000 @"
b10000 L"
b10000 4
b10000 ("
b10000 1"
b10000 2
b10000 _
b10000 &"
b10000 J"
b1100 3
b1100 `
b1100 y
b1100 2"
1Y
#6
0Y
#7
b1 [
b1 d
b1 3"
b11100000010100100 (
b11100000010100100 h
b11100000010100100 '"
b11100000010010100 )
b11100000010010100 i
b11100000010010100 Z"
b111000000100101 -
b111000000100101 ="
b111000000100101 Y"
b111000000100101 \"
b10 X
b10 a
b10 g
b10101 C
b10101 0"
b10101 4"
b111000000100101 ["
b110 0
b110 >"
b110 T"
b10101 V"
b10110 1
b10110 ?"
b10110 S"
b1010 U"
b100010 e
b10101 /"
b10011 ."
b100 *
b100 b
b100 %"
b101 +
b101 c
b101 -"
b11110 #
b11110 {
b11110 !"
b11110 *"
b11110 W"
b10010011011011000000100101 B
b10010011011011000000100101 z
b10010011011011000000100101 I"
b1010101010111000000100101 F
b1010101010111000000100101 w
b1010101010111000000100101 A"
b1010101010111000000100101 K"
b10100100111010100000100010 R
b10100100111010100000100010 t
b10100100111010100000100010 x
b10100100111010100000100010 D"
b11111111111111111010100000100010 I
b11111111111111111010100000100010 #"
b11111111111111111010100000100010 H"
b100 L
b100 $"
b100 5"
b100 G"
b101 M
b101 ,"
b101 F"
b10000 N
b10000 E"
b10 9
b10 n
b10 9"
b11 A
b11 o
b11 ""
b11 +"
b11 7"
b11 M"
b10010 ?
b10010 s
b10010 :"
b10010 N"
b1010 &
b1010 r
b1010 Q"
b1010 X"
b11110 '
b11110 }
b11110 P"
b10100 4
b10100 ("
b10100 1"
b10100 2
b10100 _
b10100 &"
b10100 J"
b10000 3
b10000 `
b10000 y
b10000 2"
1Y
#8
0Y
#9
b11110 [
b11110 d
b11110 3"
b11111111111111101100000010010100 )
b11111111111111101100000010010100 i
b11111111111111101100000010010100 Z"
b101 X
b101 a
b101 g
b1110 C
b1110 0"
b1110 4"
b11111111111111111011000000100101 -
b11111111111111111011000000100101 ="
b11111111111111111011000000100101 Y"
b11111111111111111011000000100101 \"
b11 #
b11 {
b11 !"
b11 *"
b11 W"
b100101 e
b1110 /"
b10101 ."
b110 *
b110 b
b110 %"
b11110 +
b11110 c
b11110 -"
b1011000000100101 ["
b111100 0
b111100 >"
b111100 T"
b1101 V"
b10010 U"
b1100010110110100000100010 B
b1100010110110100000100010 z
b1100010110110100000100010 I"
b10010 &
b10010 r
b10010 Q"
b10010 X"
b11 '
b11 }
b11 P"
b100 9
b100 n
b100 9"
b1 A
b1 o
b1 ""
b1 +"
b1 7"
b1 M"
b10101 ?
b10101 s
b10101 :"
b10101 N"
b1010101010111000000100101 R
b1010101010111000000100101 t
b1010101010111000000100101 x
b1010101010111000000100101 D"
b111000000100101 I
b111000000100101 #"
b111000000100101 H"
b110 L
b110 $"
b110 5"
b110 G"
b11110 M
b11110 ,"
b11110 F"
b10010011011011000000100101 F
b10010011011011000000100101 w
b10010011011011000000100101 A"
b10010011011011000000100101 K"
b11111111111111101100000010101100 (
b11111111111111101100000010101100 h
b11111111111111101100000010101100 '"
b11000 E
b11000 j
b11000 @"
b11000 L"
b11000 4
b11000 ("
b11000 1"
b11000 2
b11000 _
b11000 &"
b11000 J"
b10100 3
b10100 `
b10100 y
b10100 2"
b0 1
b0 ?"
b0 S"
1Y
#10
0Y
#11
b11010000010100000 (
b11010000010100000 h
b11010000010100000 '"
b11010000010001000 )
b11010000010001000 i
b11010000010001000 Z"
b110100000100010 -
b110100000100010 ="
b110100000100010 Y"
b110100000100010 \"
b10110 C
b10110 0"
b10110 4"
b110100000100010 ["
b101000 0
b101000 >"
b101000 T"
b1011 V"
b1100 U"
b10110 /"
b1101 ."
b11 +
b11 c
b11 -"
b1 #
b1 {
b1 !"
b1 *"
b1 W"
b11 [
b11 d
b11 3"
b10010011011011100000100100 B
b10010011011011100000100100 z
b10010011011011100000100100 I"
b1100010110110100000100010 F
b1100010110110100000100010 w
b1100010110110100000100010 A"
b1100010110110100000100010 K"
b10010011011011000000100101 R
b10010011011011000000100101 t
b10010011011011000000100101 x
b10010011011011000000100101 D"
b11111111111111111011000000100101 I
b11111111111111111011000000100101 #"
b11111111111111111011000000100101 H"
b111100 L
b111100 $"
b111100 5"
b111100 G"
b11 M
b11 ,"
b11 F"
b11000 N
b11000 E"
b110 9
b110 n
b110 9"
b11110 A
b11110 o
b11110 ""
b11110 +"
b11110 7"
b11110 M"
b1110 ?
b1110 s
b1110 :"
b1110 N"
b10101 &
b10101 r
b10101 Q"
b10101 X"
b1 '
b1 }
b1 P"
b11100 4
b11100 ("
b11100 1"
b1 *
b1 b
b1 %"
b11100 2
b11100 _
b11100 &"
b11100 J"
b11000 3
b11000 `
b11000 y
b11000 2"
b11 G
b11 v
b11 ~
b110010 1
b110010 ?"
b110010 S"
1Y
#12
0Y
#13
b11111111111111101110000010010000 )
b11111111111111101110000010010000 i
b11111111111111101110000010010000 Z"
b10 X
b10 a
b10 g
b1101 C
b1101 0"
b1101 4"
b11111111111111111011100000100100 -
b11111111111111111011100000100100 ="
b11111111111111111011100000100100 Y"
b11111111111111111011100000100100 \"
b11110 #
b11110 {
b11110 !"
b11110 *"
b11110 W"
b100010 e
b1101 /"
b1011 ."
b110010 +
b110010 c
b110010 -"
b1011100000100100 ["
b111100 0
b111100 >"
b111100 T"
b1101 V"
b11 1
b11 ?"
b11 S"
b10010 U"
b1010 [
b1010 d
b1010 3"
b1010101010111100000100100 B
b1010101010111100000100100 z
b1010101010111100000100100 I"
b1110 &
b1110 r
b1110 Q"
b1110 X"
b11110 '
b11110 }
b11110 P"
b111100 9
b111100 n
b111100 9"
b11 A
b11 o
b11 ""
b11 +"
b11 7"
b11 M"
b10110 ?
b10110 s
b10110 :"
b10110 N"
b1100010110110100000100010 R
b1100010110110100000100010 t
b1100010110110100000100010 x
b1100010110110100000100010 D"
b110100000100010 I
b110100000100010 #"
b110100000100010 H"
b101000 L
b101000 $"
b101000 5"
b101000 G"
b110010 M
b110010 ,"
b110010 F"
b10010011011011100000100100 F
b10010011011011100000100100 w
b10010011011011100000100100 A"
b10010011011011100000100100 K"
b11111111111111101110000010110000 (
b11111111111111101110000010110000 h
b11111111111111101110000010110000 '"
b100000 E
b100000 j
b100000 @"
b100000 L"
b101000 *
b101000 b
b101000 %"
b100000 4
b100000 ("
b100000 1"
b0 G
b0 v
b0 ~
b100000 2
b100000 _
b100000 &"
b100000 J"
b11100 3
b11100 `
b11100 y
b11100 2"
1Y
#14
0Y
#15
1!
b0 [
b0 d
b0 3"
b11110000010110000 (
b11110000010110000 h
b11110000010110000 '"
b11110000010010000 )
b11110000010010000 i
b11110000010010000 Z"
b111100000100100 -
b111100000100100 ="
b111100000100100 Y"
b111100000100100 \"
b100 X
b100 a
b100 g
b10111 C
b10111 0"
b10111 4"
b111100000100100 ["
b1 0
b1 >"
b1 T"
b10101 V"
b11110 1
b11110 ?"
b11110 S"
b1010 U"
b100100 e
b10111 /"
b1101 ."
b111100 *
b111100 b
b111100 %"
b11 +
b11 c
b11 -"
b11 #
b11 {
b11 !"
b11 *"
b11 W"
b10010011010100000000100111 B
b10010011010100000000100111 z
b10010011010100000000100111 I"
b1010101010111100000100100 F
b1010101010111100000100100 w
b1010101010111100000100100 A"
b1010101010111100000100100 K"
b10010011011011100000100100 R
b10010011011011100000100100 t
b10010011011011100000100100 x
b10010011011011100000100100 D"
b11111111111111111011100000100100 I
b11111111111111111011100000100100 #"
b11111111111111111011100000100100 H"
b111100 L
b111100 $"
b111100 5"
b111100 G"
b11 M
b11 ,"
b11 F"
b100000 N
b100000 E"
b101000 9
b101000 n
b101000 9"
b1010 A
b1010 o
b1010 ""
b1010 +"
b1010 7"
b1010 M"
b1101 ?
b1101 s
b1101 :"
b1101 N"
b10110 &
b10110 r
b10110 Q"
b10110 X"
b11 '
b11 }
b11 P"
b100100 4
b100100 ("
b100100 1"
b100100 2
b100100 _
b100100 &"
b100100 J"
b100000 3
b100000 `
b100000 y
b100000 2"
1Y
#16
0Y
#17
b10000000010011100 )
b10000000010011100 i
b10000000010011100 Z"
b1111 C
b1111 0"
b1111 4"
b100000000100111 -
b100000000100111 ="
b100000000100111 Y"
b100000000100111 \"
b1010 #
b1010 {
b1010 !"
b1010 *"
b1010 W"
b1111 /"
b10101 ."
b11110 +
b11110 c
b11110 -"
b100000000100111 ["
b111100 0
b111100 >"
b111100 T"
b1101 V"
b11 1
b11 ?"
b11 S"
b10010 U"
0!
b1010 [
b1010 d
b1010 3"
b1010101011000000000100111 B
b1010101011000000000100111 z
b1010101011000000000100111 I"
b1101 &
b1101 r
b1101 Q"
b1101 X"
b1010 '
b1010 }
b1010 P"
b111100 9
b111100 n
b111100 9"
b0 A
b0 o
b0 ""
b0 +"
b0 7"
b0 M"
1:
b10111 ?
b10111 s
b10111 :"
b10111 N"
b1010101010111100000100100 R
b1010101010111100000100100 t
b1010101010111100000100100 x
b1010101010111100000100100 D"
b111100000100100 I
b111100000100100 #"
b111100000100100 H"
b1 L
b1 $"
b1 5"
b1 G"
b11110 M
b11110 ,"
b11110 F"
b10010011010100000000100111 F
b10010011010100000000100111 w
b10010011010100000000100111 A"
b10010011010100000000100111 K"
b10000000011000100 (
b10000000011000100 h
b10000000011000100 '"
b101000 E
b101000 j
b101000 @"
b101000 L"
b1010 *
b1010 b
b1010 %"
b101000 4
b101000 ("
b101000 1"
b11 G
b11 v
b11 ~
b101000 2
b101000 _
b101000 &"
b101000 J"
b100100 3
b100100 `
b100100 y
b100100 2"
1Y
#18
0Y
#19
b11111111111111100000000011000100 (
b11111111111111100000000011000100 h
b11111111111111100000000011000100 '"
b11111111111111100000000010011100 )
b11111111111111100000000010011100 i
b11111111111111100000000010011100 Z"
b11111111111111111000000000100111 -
b11111111111111111000000000100111 ="
b11111111111111111000000000100111 Y"
b11111111111111111000000000100111 \"
b110 X
b110 a
b110 g
b1000 C
b1000 0"
b1000 4"
b1000000000100111 ["
b10101 V"
b11110 1
b11110 ?"
b11110 S"
b1010 U"
b100111 e
b1000 /"
b1101 ."
b11 +
b11 c
b11 -"
b0 #
b0 {
b0 !"
b0 *"
b0 W"
0!
b11111111111111111111111111110100 [
b11111111111111111111111111110100 d
b11111111111111111111111111110100 3"
b1110011010100100000101010 B
b1110011010100100000101010 z
b1110011010100100000101010 I"
b1010101011000000000100111 F
b1010101011000000000100111 w
b1010101011000000000100111 A"
b1010101011000000000100111 K"
b10010011010100000000100111 R
b10010011010100000000100111 t
b10010011010100000000100111 x
b10010011010100000000100111 D"
b100000000100111 I
b100000000100111 #"
b100000000100111 H"
b1010 L
b1010 $"
b1010 5"
b1010 G"
b11 M
b11 ,"
b11 F"
b101000 N
b101000 E"
b1 9
b1 n
b1 9"
b1010 A
b1010 o
b1010 ""
b1010 +"
b1010 7"
b1010 M"
0:
b1111 ?
b1111 s
b1111 :"
b1111 N"
b10111 &
b10111 r
b10111 Q"
b10111 X"
b0 '
b0 }
b0 P"
b101100 4
b101100 ("
b101100 1"
b1010 *
b1010 b
b1010 %"
b101100 2
b101100 _
b101100 &"
b101100 J"
b101000 3
b101000 `
b101000 y
b101000 2"
b0 G
b0 v
b0 ~
b1 0
b1 >"
b1 T"
1Y
#20
0Y
